…
``` r
data_local <- collect(data)
data_local <- data_local %>%
  mutate(hour = hour(as.POSIXlt(timestamp, origin = "1970-01-01", tz = "UTC")))

work_time <- data_local %>%
  group_by(hour) %>%
  summarise(traffic = sum(bytes)) %>%
  arrange(traffic)
work_time
```

    # A tibble: 24 × 2
        hour     traffic
       <int>       <dbl>
     1     5 10296318981
     2    15 10297437556
     3    11 10306926607
     4    10 10320411897
     5     1 10324774067
     6     0 10338294625
     7     3 10339156776
     8     9 10339532889
     9     6 10341154093
    10     4 10342139110
    # ℹ 14 more rows
…
